  <svg xmlns="http://www.w3.org/2000/svg" version='1.1'
                  width="100%" height="100%" >
                                      <line x1="0" y1="0" x2="200" y2="200"
                                                              style='stroke:red;stroke-width:10'/>
                                                                              </svg>
                                                                                          
